{
  "title": "Address Schema",
  "$schema": "http://json-schema.org/draft-04/schema",
  "type": "object",
  "properties": {  
    "type": {
      "type": "string"
    },
    "number": {
      "type": "integer"
    },
    "street": {
      "type": "string"
    },
    "Unit": {
      "type": "string"
    },
    "City": {
      "type": "string"
    },
    "State": {
      "type": "string"
    },
    "zipcode": {
      "type": "string"
    }
  }
}